Tutorial • seaR
…
Step 5. Add additional homophily and
size_one variables.

I also created a y variable that rounds up the weighted
counts (n).

d <- d |> 
  mutate(homophily = is_homophily(.id)) |> 
  mutate(y = round(n)) |>
  mutate(size_one = as.integer(.size == 1L)) 

d
#> # A tibble: 38 × 7
#>    .id   .size spouse      n homophily     y size_one
#>    <chr> <int>  <dbl>  <dbl>     <int> <dbl>    <int>
#>  1 M         1      0 228.           0   228        1
#>  2 F         1      0 166.           0   166        1
#>  3 M|M       2      0  72.4          1    72        0
#>  4 M|M       2      1   2.09         1     2        0
#>  5 F|M       2      0  19.5          0    19        0
#>  6 F|M       2      1 191.           0   191        0
#>  7 F|F       2      0  26.6          1    27        0
#>  8 F|F       2      1   0            1     0        0
#>  9 M|M|M     3      0  28.4          1    28        0
#> 10 M|M|M     3      1   0            1     0        0
#> # ℹ 28 more rows
…
